<?xml version="1.0" encoding="UTF-8"?>
<!DOCTYPE svg PUBLIC "-//W3C//DTD SVG 1.1//EN" "http://www.w3.org/Graphics/SVG/1.1/DTD/svg11.dtd">
<!-- Creator: CorelDRAW -->
<svg xmlns="http://www.w3.org/2000/svg" xml:space="preserve" width="83px" height="83px" version="1.1" style="shape-rendering:geometricPrecision; text-rendering:geometricPrecision; image-rendering:optimizeQuality; fill-rule:evenodd; clip-rule:evenodd"
viewBox="0 0 83 83"
 xmlns:xlink="http://www.w3.org/1999/xlink"
 xmlns:xodm="http://www.corel.com/coreldraw/odm/2003">
 <defs>
  <style type="text/css">
   <![CDATA[
    .fil0 {fill:white}
    .fil3 {fill:#383D47}
    .fil1 {fill:#99CC99}
    .fil2 {fill:#99CCFF}
   ]]>
  </style>
 </defs>
 <g id="Layer_x0020_1">
  <metadata id="CorelCorpID_0Corel-Layer"/>
  <rect class="fil0" x="-0.07" y="0.07" width="83" height="83" rx="8.92" ry="8.92"/>
  <g id="_105553439015584">
   <g id="_105553301066816">
    <path class="fil1" d="M73.13 68.18c1.86,0 3.38,1.52 3.38,3.39 0,1.87 -1.52,3.38 -3.38,3.38 -1.88,0 -3.39,-1.51 -3.39,-3.38 0,-1.87 1.51,-3.39 3.39,-3.39z"/>
    <path class="fil2" d="M12.73 8.11c3.52,0 6.37,2.84 6.37,6.37 0,3.51 -2.85,6.36 -6.37,6.36 -3.51,0 -6.37,-2.85 -6.37,-6.36 0,-3.53 2.86,-6.37 6.37,-6.37z"/>
    <path class="fil3" d="M41.44 14.37c-7.14,0.04 -13.04,5.49 -13.79,12.44 -0.15,0.78 -0.24,1.57 -0.28,2.38 -0.21,6.59 1.23,6.69 -4.06,6.81l-1.71 0c-4.93,0 -8.94,4.03 -8.94,8.94l0 0c0,3.1 1.59,5.85 4.01,7.45 1,0.81 2.28,1.32 3.81,1.43 5.87,0.74 5.4,6.42 -0.45,6.8 -0.29,0.02 -0.59,0.03 -0.92,0.02 -7.98,-0.61 -12.76,-7.34 -12.76,-15.47l0 0c0,-8.05 6.21,-14.71 14.06,-15.45l0 -0.81c0,-11.46 9.38,-20.83 20.84,-20.83l0 0 0.12 0 0.07 0 0.06 0 0.12 0 0 0c11.46,0 20.83,9.37 20.83,20.83l0 0.81c7.86,0.74 14.07,7.4 14.07,15.45l0 0c0,8.13 -4.78,14.86 -12.77,15.47 -0.32,0.01 -0.62,0 -0.91,-0.02 -5.85,-0.38 -6.32,-6.06 -0.45,-6.8 1.53,-0.11 2.79,-0.62 3.81,-1.43 2.41,-1.6 4.01,-4.35 4.01,-7.45l0 0c0,-4.91 -4.02,-8.94 -8.94,-8.94l-1.72 0c-5.28,-0.12 -3.84,-0.22 -4.06,-6.81 -0.03,-0.81 -0.12,-1.6 -0.27,-2.38 -0.75,-6.95 -6.66,-12.4 -13.78,-12.44zm0.02 49.96l0.08 0.01c3.07,0.55 2.25,14.14 10.4,9.9 2.7,-1.41 3.65,-6.25 4.02,-10.21 0.21,-2.19 0.05,-5.02 0.58,-6.92 1.47,-5.21 4.93,-10.99 -0.65,-16.42 -3.57,-3.48 -6.51,-2.16 -11.3,-0.75 -1.19,0.35 -2.2,0.5 -3.13,0.52 -0.92,-0.02 -1.93,-0.17 -3.12,-0.52 -4.8,-1.41 -7.73,-2.73 -11.31,0.75 -5.58,5.44 -2.13,11.21 -0.66,16.42 0.54,1.9 0.38,4.73 0.59,6.92 0.37,3.96 1.32,8.8 4.03,10.21 8.15,4.24 7.32,-9.35 10.4,-9.9l0.07 -0.01 0 0zm0 -18.62c0.76,0.04 1.58,-0.01 2.44,-0.19 1.7,-0.34 4.6,-1.7 6.27,-1.4 1.54,0.26 3.32,2.38 3.63,4.06 0.39,2.1 -0.61,4.65 -1.23,6.4 -1,2.78 -0.89,3.55 -1.05,6.67 -1.33,18.3 -3.22,3.33 -6.62,-1.23 -0.81,-0.87 -2.06,-1.52 -3.44,-1.37 -1.38,-0.15 -2.63,0.5 -3.44,1.37 -3.4,4.56 -5.29,19.53 -6.61,1.23 -0.17,-3.12 -0.06,-3.89 -1.06,-6.67 -0.63,-1.75 -1.61,-4.3 -1.22,-6.4 0.3,-1.68 2.09,-3.8 3.63,-4.06 1.66,-0.3 4.57,1.06 6.26,1.4 0.86,0.18 1.67,0.23 2.44,0.19l0 0 0 0z"/>
   </g>
  </g>
 </g>
</svg>
